practice/practice/JK_FF/jkff.vcd
$date
     May 10, 2024       10:31:14
$end

$version
 SystemC 2.3.3-Accellera --- Feb  5 2024 23:23:57
$end

$timescale
     1 ps
$end

$scope module SystemC $end
$var wire    1  aaaaa  rst       $end
$var wire    1  aaaab  j       $end
$var wire    1  aaaac  k       $end
$var wire    1  aaaad  clk       $end
$var wire    1  aaaae  q       $end
$var wire    1  aaaaf  qb       $end
$upscope $end
$enddefinitions  $end

$comment
All initial values are dumped below at time 0 sec = 0 timescale units.
$end

$dumpvars
1aaaaa
0aaaab
0aaaac
1aaaad
0aaaae
1aaaaf
$end

#5000
0aaaaa
0aaaad

#10000
1aaaad

#15000
1aaaac
0aaaad

#20000
1aaaab
0aaaac
1aaaad
1aaaae
0aaaaf

#25000
1aaaac
0aaaad

#30000
1aaaad
0aaaae
1aaaaf

#35000
0aaaad

#40000
1aaaad
1aaaae
0aaaaf

#45000
0aaaad

#50000
1aaaad
0aaaae
1aaaaf

#55000
0aaaad

#60000
1aaaad
1aaaae
0aaaaf

#65000
0aaaad

#70000
1aaaad
0aaaae
1aaaaf

#75000
0aaaad

#80000
1aaaad
1aaaae
0aaaaf

#85000
0aaaad

#90000
1aaaad
0aaaae
1aaaaf

